Data Integration: Building a Methane Flux Modeling Table
…
[1] 2370

after_rows

[1] 2370

Check for flux rows that did not receive MODIS data:

flux_month_vi %>%
  summarize(missing_ndvi = sum(is.na(NDVI)),
            missing_evi = sum(is.na(EVI)),
            total_rows = n())

# A tibble: 156 × 4
   YearMon   missing_ndvi missing_evi total_rows
   <yearmon>        <int>       <int>      <int>
 1 Jan 2006             0           0          1
 2 Feb 2006             0           0          1
 3 Mar 2006             0           0          1
 4 Apr 2006             0           0          1
 5 May 2006             0           0          1
 6 Jun 2006             0           0          1
 7 Jul 2006             0           0          1
 8 Aug 2006             0           0          1
 9 Sep 2006             0           0          1
10 Oct 2006             0           0          1
# ℹ 146 more rows
…
[1] 73

range(methane_model_data$YearMon)

[1] "Jan 2006" "Dec 2018"

Data quality dashboard

Check missingness:

methane_model_data %>%
  count_missing() %>%
  head(25)

# A tibble: 22 × 2
   variable          missing_count
   <chr>                     <int>
 1 country                     177
 2 continent                   177
 3 soil_ph                      39
 4 soil_nitrogen                39
 5 soil_bulk_density            39
 6 NDVI                          8
 7 EVI                           8
 8 SITE_ID                       0
 9 SITE_NAME                     0
10 YearMon                       0
# ℹ 12 more rows
…
